<svg width="60" height="60" viewBox="0 0 60 60" fill="none" xmlns="http://www.w3.org/2000/svg">
<rect width="60" height="60" rx="30" fill="#EFF3FD"/>
<path d="M20 26.6111V34.3889H25.7273V48H33.3636V34.3889H39.0909L41 26.6111H33.3636V22.7222C33.3636 22.2065 33.5648 21.7119 33.9228 21.3473C34.2808 20.9826 34.7664 20.7778 35.2727 20.7778H41V13H35.2727C32.7411 13 30.3132 14.0243 28.5231 15.8476C26.733 17.6708 25.7273 20.1437 25.7273 22.7222V26.6111H20Z" stroke="#187BD8" stroke-width="2.75" stroke-linecap="round" stroke-linejoin="round"/>
</svg>
